Biofilm Prediction Stuff - Biofilm data EDA
…
# A tibble: 0 × 18
# ℹ 18 variables: sample <chr>, source_species <chr>, serotype <chr>,
#   initial_incubation_plate_24hrs <chr>, well <chr>, nvsl_id <chr>,
#   starting_od600_vbe_blank <chr>,
#   how_much_sample_to_add_biofilm_inc_ml <dbl>,
#   how_much_vbe_to_add_biofilm_inc_500_ml_tv <dbl>, x72_hr_plate <chr>,
#   plate_1_well_72hr_incubation <chr>, cv_1_od538 <dbl>,
#   blank_1_od538_538 <dbl>, plate_2_well_72hr_incubation <chr>, …

Code

sbfp_data %>%
    filter(str_detect(source_id, "18-|19-"))

# A tibble: 991 × 16
   initial_incubation_plate_24hrs well  source_id nvsl_id starting_od600_vbe_b…¹
   <chr>                          <chr> <chr>     <chr>   <chr>                 
 1 02nov23_24h_A                  B02   18-01218… NVSL02… 9.8000000000000004E-2 
 2 02nov23_24h_A                  B03   18-01218… NVSL02… 0.11700000000000001   
 3 02nov23_24h_A                  B04   18-01218… NVSL02… 0.11                  
 4 02nov23_24h_A                  B05   18-01218… NVSL02… 0.107                 
 5 02nov23_24h_A                  B06   18-01218… NVSL02… 7.2999999999999995E-2 
 6 02nov23_24h_A                  B07   18-01218… NVSL02… 5.8999999999999997E-2 
 7 02nov23_24h_A                  B08   18-01218… NVSL02… 0.129                 
 8 02nov23_24h_A                  B09   18-01218… NVSL02… 7.3999999999999996E-2 
 9 02nov23_24h_A                  B10   18-01218… NVSL02… 7.8E-2                
10 02nov23_24h_A                  B11   18-01218… NVSL02… 0.11799999999999999   
# ℹ 981 more rows
# ℹ abbreviated name: ¹​starting_od600_vbe_blank
# ℹ 11 more variables: how_much_sample_to_add_biofilm_inc_ml <dbl>,
#   how_much_vbe_to_add_biofilm_inc_500_ml_tv <dbl>, x72_hr_plate <chr>,
#   plate_1_well_72hr_incubation <chr>, cv_1_od538 <dbl>,
#   blank_1_od538_538 <dbl>, plate_2_well_72hr_incubation <chr>,
#   cv_2_od538 <dbl>, blank_2_od538_538 <dbl>, mean <dbl>, std_dev <dbl>
…
Code

inner_join(
    metadata,
    sbfp_data,
    by = c("sample" = "source_id")
) %>%
    filter(!is.na(mean))

# A tibble: 991 × 18
   sample        source_species serotype    initial_incubation_p…¹ well  nvsl_id
   <chr>         <chr>          <chr>       <chr>                  <chr> <chr>  
 1 18-006979-001 Pig            Typhimurium 12oct23_24h_A          B02   NVSL00…
 2 18-006979-002 Pig            Heidelberg  12oct23_24h_A          B03   NVSL00…
 3 18-006979-004 Turkey         Typhimurium 12oct23_24h_A          B04   NVSL00…
 4 18-006979-005 Chicken        Heidelberg  12oct23_24h_A          B05   NVSL00…
 5 18-006979-010 Pig            Heidelberg  12oct23_24h_A          B06   NVSL00…
 6 18-006979-014 Horse          4,[5],12:i… 12oct23_24h_A          B07   NVSL00…
 7 18-006979-015 Pig            Typhimurium 12oct23_24h_A          B08   NVSL00…
 8 18-006979-016 Horse          Typhimurium 12oct23_24h_A          B09   NVSL00…
 9 18-006979-021 Pig            Heidelberg  12oct23_24h_A          B10   NVSL00…
10 18-006979-023 Pig            Heidelberg  12oct23_24h_A          B11   NVSL00…
# ℹ 981 more rows
# ℹ abbreviated name: ¹​initial_incubation_plate_24hrs
# ℹ 12 more variables: starting_od600_vbe_blank <chr>,
#   how_much_sample_to_add_biofilm_inc_ml <dbl>,
#   how_much_vbe_to_add_biofilm_inc_500_ml_tv <dbl>, x72_hr_plate <chr>,
#   plate_1_well_72hr_incubation <chr>, cv_1_od538 <dbl>,
#   blank_1_od538_538 <dbl>, plate_2_well_72hr_incubation <chr>, …
…
